^C:\USERS\ADMIN\DESKTOP\DEN\GAMELOFT\TRAININGFRAMEWORKREP\DEBUG\UTILITIES.LIB|C:\USERS\ADMIN\DESKTOP\DEN\GAMELOFT\TRAININGFRAMEWORKREP\NEWTRAININGFRAMEWORK\DEBUG\MESH.OBJ|C:\USERS\ADMIN\DESKTOP\DEN\GAMELOFT\TRAININGFRAMEWORKREP\NEWTRAININGFRAMEWORK\DEBUG\NEWTRAININGFRAMEWORK.OBJ|C:\USERS\ADMIN\DESKTOP\DEN\GAMELOFT\TRAININGFRAMEWORKREP\NEWTRAININGFRAMEWORK\DEBUG\NEWTRAININGFRAMEWORK.RES|C:\USERS\ADMIN\DESKTOP\DEN\GAMELOFT\TRAININGFRAMEWORKREP\NEWTRAININGFRAMEWORK\DEBUG\SHADERS.OBJ|C:\USERS\ADMIN\DESKTOP\DEN\GAMELOFT\TRAININGFRAMEWORKREP\NEWTRAININGFRAMEWORK\DEBUG\STDAFX.OBJ|C:\USERS\ADMIN\DESKTOP\DEN\GAMELOFT\TRAININGFRAMEWORKREP\NEWTRAININGFRAMEWORK\DEBUG\TEXTURE.OBJ
C:\USERS\ADMIN\DESKTOP\DEN\GAMELOFT\TRAININGFRAMEWORKREP\LIB\LIBEGL.LIB
C:\USERS\ADMIN\DESKTOP\DEN\GAMELOFT\TRAININGFRAMEWORKREP\LIB\LIBGLESV2.LIB
C:\PROGRAM FILES (X86)\WINDOWS KITS\8.1\LIB\WINV6.3\UM\X86\KERNEL32.LIB
C:\PROGRAM FILES (X86)\WINDOWS KITS\8.1\LIB\WINV6.3\UM\X86\USER32.LIB
C:\PROGRAM FILES (X86)\WINDOWS KITS\8.1\LIB\WINV6.3\UM\X86\GDI32.LIB
C:\PROGRAM FILES (X86)\WINDOWS KITS\8.1\LIB\WINV6.3\UM\X86\WINSPOOL.LIB
C:\PROGRAM FILES (X86)\WINDOWS KITS\8.1\LIB\WINV6.3\UM\X86\COMDLG32.LIB
C:\PROGRAM FILES (X86)\WINDOWS KITS\8.1\LIB\WINV6.3\UM\X86\ADVAPI32.LIB
C:\PROGRAM FILES (X86)\WINDOWS KITS\8.1\LIB\WINV6.3\UM\X86\SHELL32.LIB
C:\PROGRAM FILES (X86)\WINDOWS KITS\8.1\LIB\WINV6.3\UM\X86\OLE32.LIB
C:\PROGRAM FILES (X86)\WINDOWS KITS\8.1\LIB\WINV6.3\UM\X86\OLEAUT32.LIB
C:\PROGRAM FILES (X86)\WINDOWS KITS\8.1\LIB\WINV6.3\UM\X86\UUID.LIB
C:\PROGRAM FILES (X86)\WINDOWS KITS\8.1\LIB\WINV6.3\UM\X86\ODBC32.LIB
C:\PROGRAM FILES (X86)\WINDOWS KITS\8.1\LIB\WINV6.3\UM\X86\ODBCCP32.LIB
C:\USERS\ADMIN\DESKTOP\DEN\GAMELOFT\TRAININGFRAMEWORKREP\NEWTRAININGFRAMEWORK\DEBUG\NEWTRAININGFRAMEWORK.RES
C:\USERS\ADMIN\DESKTOP\DEN\GAMELOFT\TRAININGFRAMEWORKREP\NEWTRAININGFRAMEWORK\DEBUG\MESH.OBJ
C:\USERS\ADMIN\DESKTOP\DEN\GAMELOFT\TRAININGFRAMEWORKREP\NEWTRAININGFRAMEWORK\DEBUG\NEWTRAININGFRAMEWORK.OBJ
C:\USERS\ADMIN\DESKTOP\DEN\GAMELOFT\TRAININGFRAMEWORKREP\NEWTRAININGFRAMEWORK\DEBUG\SHADERS.OBJ
C:\USERS\ADMIN\DESKTOP\DEN\GAMELOFT\TRAININGFRAMEWORKREP\NEWTRAININGFRAMEWORK\DEBUG\STDAFX.OBJ
C:\USERS\ADMIN\DESKTOP\DEN\GAMELOFT\TRAININGFRAMEWORKREP\NEWTRAININGFRAMEWORK\DEBUG\TEXTURE.OBJ
C:\USERS\ADMIN\DESKTOP\DEN\GAMELOFT\TRAININGFRAMEWORKREP\DEBUG\UTILITIES.LIB
C:\WINDOWS\SYSTEM32\TZRES.DLL
C:\WINDOWS\GLOBALIZATION\SORTING\SORTDEFAULT.NLS
C:\PROGRAM FILES (X86)\MICROSOFT VISUAL STUDIO 12.0\VC\LIB\MSVCPRTD.LIB
C:\PROGRAM FILES (X86)\MICROSOFT VISUAL STUDIO 12.0\VC\LIB\MSVCRTD.LIB
C:\PROGRAM FILES (X86)\MICROSOFT VISUAL STUDIO 12.0\VC\LIB\OLDNAMES.LIB
C:\PROGRAM FILES (X86)\MICROSOFT VISUAL STUDIO 12.0\VC\BIN\LINK.EXE
C:\WINDOWS\SYSTEM32\RSAENH.DLL
C:\PROGRAM FILES (X86)\MICROSOFT VISUAL STUDIO 12.0\VC\BIN\1033\LINKUI.DLL
C:\PROGRAM FILES (X86)\WINDOWS KITS\8.1\BIN\X86\RC.EXE
C:\PROGRAM FILES (X86)\MICROSOFT VISUAL STUDIO 12.0\VC\BIN\CVTRES.EXE
